<?xml version="1.0" encoding="UTF-8" standalone="no"?>
<!-- Created with Inkscape (http://www.inkscape.org/) -->

<svg
   xmlns:dc="http://purl.org/dc/elements/1.1/"
   xmlns:cc="http://creativecommons.org/ns#"
   xmlns:rdf="http://www.w3.org/1999/02/22-rdf-syntax-ns#"
   xmlns:svg="http://www.w3.org/2000/svg"
   xmlns="http://www.w3.org/2000/svg"
   xmlns:xlink="http://www.w3.org/1999/xlink"
   xmlns:sodipodi="http://sodipodi.sourceforge.net/DTD/sodipodi-0.dtd"
   xmlns:inkscape="http://www.inkscape.org/namespaces/inkscape"
   version="1.0"
   width="364"
   height="188"
   viewBox="0 0 364 188"
   id="Layer_1"
   xml:space="preserve"
   sodipodi:version="0.32"
   inkscape:version="0.92.4 (5da689c313, 2019-01-14)"
   sodipodi:docname="app_icon.svg"
   inkscape:output_extension="org.inkscape.output.svg.inkscape"><metadata
   id="metadata139"><rdf:RDF><cc:Work
       rdf:about=""><dc:format>image/svg+xml</dc:format><dc:type
         rdf:resource="http://purl.org/dc/dcmitype/StillImage" /><dc:title></dc:title></cc:Work></rdf:RDF></metadata><sodipodi:namedview
   inkscape:window-height="921"
   inkscape:window-width="1226"
   inkscape:pageshadow="2"
   inkscape:pageopacity="0.0"
   guidetolerance="10.0"
   gridtolerance="10.0"
   objecttolerance="10.0"
   borderopacity="1.0"
   bordercolor="#666666"
   pagecolor="#ffffff"
   id="base"
   showgrid="false"
   inkscape:zoom="1.4917582"
   inkscape:cx="132.3941"
   inkscape:cy="115"
   inkscape:window-x="600"
   inkscape:window-y="65"
   inkscape:current-layer="Layer_1"
   inkscape:window-maximized="0" />
<g
   id="g3"
   transform="translate(0.67034993,3.583795)">
	<g
   id="g5">
		<linearGradient
   x1="94.634766"
   y1="180"
   x2="94.634766"
   y2="103.54297"
   id="SVGID_1_"
   gradientUnits="userSpaceOnUse">
			<stop
   id="stop8"
   style="stop-color:#777777;stop-opacity:1"
   offset="0.285714" />
			<stop
   id="stop10"
   style="stop-color:#8c8c8c;stop-opacity:1"
   offset="1" />
		</linearGradient>
		<path
   d="m 77.253906,135.62109 h 5.253906 l 0.894531,-0.44922 23.249997,-29.73047 0.89453,-0.55663 11.73633,-1.3418 0.44727,0.56055 -26.156251,31.85351 -3.689454,3.57813 2.572266,2.68164 18.328129,24.36718 c 1.00781,1.3418 3.91406,4.69336 8.83398,4.69336 0.44532,0 0.89454,0 1.3418,-0.10938 l 0.44531,0.5586 -1.22852,7.60157 -0.66992,0.55468 C 118.83594,180 118.16406,180 117.49414,180 c -8.94141,0 -13.86133,-7.60156 -14.97656,-9.16406 L 82.957031,144.34375 82.0625,143.89453 h -4.808594 v 35.21094 l -0.558594,0.55469 h -8.271484 l -0.560547,-0.55469 v -73.77344 l 0.560547,-0.67383 8.271484,-1.11523 0.558594,0.44726 z"
   id="path12"
   style="fill:url(#SVGID_1_)"
   inkscape:connector-curvature="0" />
		
			<linearGradient
   x1="152.02148"
   y1="179.66016"
   x2="152.02148"
   y2="104.21484"
   id="SVGID_2_"
   gradientUnits="userSpaceOnUse">
			<stop
   id="stop15"
   style="stop-color:#777777;stop-opacity:1"
   offset="0.285714" />
			<stop
   id="stop17"
   style="stop-color:#8c8c8c;stop-opacity:1"
   offset="1" />
		</linearGradient>
		<path
   d="m 124.63672,179.10547 v -74.33398 l 0.55859,-0.55664 h 25.26368 c 17.88281,0 28.94726,9.61328 28.94726,27.38671 V 152.5 c 0,17.99414 -11.06445,27.16016 -28.94726,27.16016 h -25.26368 z m 9.39258,-65.95117 v 57.56445 h 16.42969 c 11.40039,0 19.7832,-5.8125 19.7832,-19.22265 v -18.89063 c 0,-13.08008 -8.38281,-19.45117 -19.7832,-19.45117 z"
   id="path19"
   style="fill:url(#SVGID_2_)"
   inkscape:connector-curvature="0" />
		
			<linearGradient
   x1="210.04297"
   y1="179.66016"
   x2="210.04297"
   y2="104.21484"
   id="SVGID_3_"
   gradientUnits="userSpaceOnUse">
			<stop
   id="stop22"
   style="stop-color:#777777;stop-opacity:1"
   offset="0.285714" />
			<stop
   id="stop24"
   style="stop-color:#8c8c8c;stop-opacity:1"
   offset="1" />
		</linearGradient>
		<path
   d="m 224.04297,104.77148 v 7.82422 l -0.55859,0.55859 h -29.95703 v 22.35938 h 26.04687 l 0.44922,0.55664 15.92187,8.38281 h -18.60937 -23.8086 v 26.26563 h 30.07032 l 0.44531,0.55859 -1.11719,7.82812 -0.67187,0.55469 h -37.55469 l -0.55859,-0.55469 v -74.33398 l 0.55859,-0.55664 h 38.78515 z"
   id="path26"
   style="fill:url(#SVGID_3_)"
   inkscape:connector-curvature="0" />
	</g>
	<g
   id="g28">
		
			<linearGradient
   x1="250.88672"
   y1="141.33594"
   x2="218.74609"
   y2="141.33594"
   id="SVGID_4_"
   gradientUnits="userSpaceOnUse">
			<stop
   id="stop31"
   style="stop-color:#80b3ff;stop-opacity:1"
   offset="0.0054945" />
			<stop
   id="stop33"
   style="stop-color:#2c72c7;stop-opacity:1"
   offset="0.73076898" />
		</linearGradient>
		<path
   d="m 244.82422,152.94531 0.60547,-0.17188 5.20312,1.82032 0.25391,0.51758 c -2.07422,5.54687 -7.79688,8.66601 -15.16016,8.66601 -10.66016,0 -16.98047,-5.11523 -16.98047,-14.98828 v -14.5586 c 0,-9.70312 6.41406,-15.33593 16.19922,-15.33593 11.09375,0 14.81641,6.75976 14.81641,12.82031 0,8.92773 -5.98047,12.73828 -13.94922,12.73828 -9.09766,0 -10.13672,0 -10.13672,0 v 2.86133 c 0,6.66992 3.8164,10.2207 9.70312,10.2207 5.19922,1e-5 7.79688,-1.72656 9.44532,-4.58984 z m -19.14844,-17.76563 v 1.5625 c 1.46875,1.125 5.45703,1.39063 9.09766,1.39063 4.07031,0 8.05469,-1.39063 8.05469,-6.75781 0,-3.03516 -2.16407,-6.15235 -8.14063,-6.15235 -5.89453,1e-5 -9.01172,3.29297 -9.01172,9.95704 z"
   id="path35"
   style="fill:url(#SVGID_4_)"
   inkscape:connector-curvature="0" />
		<polygon
   points="287.14844,115.57422 295.80859,114.49414 296.13672,115.03906 277.08984,168.82812 276.32812,169.25781 268.21484,167.52734 267.45703,166.87695 248.94531,116.22852 249.49219,115.57422 258.03906,114.49414 258.57812,114.92969 272.75781,158.33203 286.50391,116.11914 "
   id="polygon37"
   style="fill:#5292e2" />
	</g>
	<path
   d="m 218.74609,135.51367 h -22.58203 c -4.01172,3.93164 -8.14062,7.71289 -12.02343,11.11524 v 8.08203 c 2.9414,-1.28907 6.10156,-2.70313 9.38671,-4.18164 v -6.07617 h 13.48828 c 2.3086,-1.03516 4.60157,-2.05469 6.85547,-3.03907 0.14454,1.00977 0.28516,2.01953 0.42969,3.03906 h 2.32422 c 0.70703,-0.29296 1.41406,-0.57812 2.12109,-0.85937 0,-3.09766 0,-8.08008 0,-8.08008 z m -109.00781,-30.8789 c -2.41016,2.07617 -4.85156,4.16601 -7.34766,6.25781 l -0.42382,0.53906 -0.004,0.006 c 5.67578,-1.80469 11.29102,-3.91016 16.83789,-6.20312 l 0.92969,-1.13086 -0.44727,-0.56055 z m 83.78906,14.41211 v -5.89258 h 2.74219 c 0.32422,-1.04102 0.5625,-2.0586 0.66406,-3.02539 0.25391,-2.42969 -0.24609,-4.41797 -1.33593,-5.91407 h -10.89844 l -0.55859,0.55664 v 25.04883 c 3.86328,-3.29297 7.12109,-7.05664 9.38671,-10.77343 z m 30.51563,-6.45117 v -7.82422 l -0.5586,-0.55664 H 218.625 c -0.1875,2.54101 -1.45703,5.58984 -3.47656,8.93945 h 8.33594 z m -134.158204,26.93945 3.689453,-3.57813 2.882812,-3.50976 c -1.261719,-3.14063 -2.447265,-6.2793 -3.5625,-9.41211 l -9.492188,12.13672 -0.894531,0.44922 h -5.253906 v -4.67188 c -3.087891,2.34375 -6.21875,4.67383 -9.390625,6.98438 v 12.91406 c 3.048828,0.65234 6.181641,1.1289 9.390625,1.43945 v -8.39258 H 82.0625 l 0.894531,0.44922 6.185547,8.37891 c 3.513672,-0.0664 7.091797,-0.29493 10.71875,-0.66211 l -7.404297,-9.84375 z m 60.574214,-35.32031 h -6.82617 c -5.83984,3.42968 -11.85156,6.80078 -18.07812,10.01367 2.68554,3.23632 5.53906,6.43359 8.47461,9.62109 V 113.1543 h 16.42969 c 11.40039,0 19.7832,6.37109 19.7832,19.45117 v 5.49609 c 0.63867,-0.26562 1.29883,-0.52343 1.93359,-0.78711 2.50781,-1.04882 4.9336,-2.38476 7.23047,-3.91211 v -1.80078 c 0,-17.77344 -11.06445,-27.38672 -28.94727,-27.38672 z m 18.01172,56.55468 c 2.28907,-0.54101 6.03711,-1.96484 10.67188,-3.91406 0.0684,-0.60547 0.12109,-1.22461 0.16601,-1.84766 0.0508,-0.82031 0.0977,-1.64453 0.0977,-2.50781 v -1.81055 c -4.125,3.4668 -7.70117,6.27735 -10.1875,8.07813 -0.21484,0.70117 -0.46484,1.36523 -0.74805,2.00195 z"
   id="path39"
   style="opacity:0.3"
   inkscape:connector-curvature="0" />
	<g
   id="g41"
   style="opacity:0.4">
		<path
   d="m 283.54688,125.20313 -2.80469,8.60546 -0.14844,0.45899 c 1.80859,2.87305 3.67969,5.8418 5.58984,8.87695 l 3.3086,-9.3457 c -2.03516,-2.93945 -4.01953,-5.80664 -5.94531,-8.5957 z"
   id="path43"
   style="fill:#0057ae"
   inkscape:connector-curvature="0" />
		<path
   d="m 258.03906,114.49414 -6.46875,0.81836 c 0.96875,1.98437 1.95703,3.99805 2.96875,6.06055 -1.19922,0.0801 -2.39062,0.21679 -3.58984,0.33789 l 4.37109,11.95703 c 3.02344,-0.35938 6.07422,-0.58594 9.15625,-0.6836 l -5.89844,-18.05468 z"
   id="path45"
   style="fill:#0057ae"
   inkscape:connector-curvature="0" />
		<path
   d="m 249.67187,130.18359 c -0.0312,-0.29687 -0.0703,-0.59765 -0.11718,-0.89843 -0.0234,-0.11328 -0.0508,-0.22657 -0.0703,-0.33985 -0.0625,-0.29687 -0.125,-0.59375 -0.20703,-0.88672 -0.0273,-0.10156 -0.0586,-0.20507 -0.0898,-0.30859 -0.0937,-0.30469 -0.19531,-0.60938 -0.30859,-0.91016 -0.0352,-0.0859 -0.0703,-0.17187 -0.10547,-0.26172 -0.12891,-0.3125 -0.26953,-0.62304 -0.42969,-0.92773 -0.0352,-0.0703 -0.0703,-0.13867 -0.10938,-0.20898 -0.17578,-0.32422 -0.36718,-0.63672 -0.57031,-0.94727 -0.0352,-0.0488 -0.0664,-0.0977 -0.10156,-0.14453 -0.22656,-0.33008 -0.47656,-0.65039 -0.75,-0.96289 -0.0195,-0.0234 -0.0391,-0.0469 -0.0586,-0.0703 -0.30079,-0.33789 -0.6211,-0.66016 -0.96485,-0.9668 -5.02734,0.74023 -10.01953,1.7793 -15.00781,3.11914 -0.33203,-2.03906 -0.65625,-4.01563 -0.97656,-5.98633 -0.004,0.002 -0.008,0.004 -0.0156,0.004 -0.76172,0.1875 -1.47656,0.43555 -2.17187,0.70898 -0.13672,0.0508 -0.27344,0.10157 -0.40625,0.16016 -0.66797,0.28515 -1.30469,0.60742 -1.89844,0.9707 -0.10547,0.0644 -0.20313,0.13477 -0.30469,0.20117 -0.55469,0.35938 -1.08203,0.75196 -1.57422,1.1836 -0.0547,0.0469 -0.11328,0.0898 -0.16797,0.14062 -0.51171,0.46485 -0.97265,0.97656 -1.40234,1.51758 -0.0898,0.11328 -0.17969,0.22852 -0.26562,0.3457 -0.41016,0.55469 -0.79297,1.14258 -1.11719,1.77344 -0.0391,0.0742 -0.0703,0.15234 -0.10547,0.22656 -0.29688,0.59766 -0.55078,1.22852 -0.76563,1.89063 -0.043,0.12109 -0.0859,0.24219 -0.125,0.36719 -0.21484,0.71093 -0.3789,1.45507 -0.5,2.23046 -0.0234,0.16407 -0.043,0.32813 -0.0664,0.49219 -0.10156,0.81446 -0.17188,1.65235 -0.17188,2.53516 v 9.37305 c 5.17188,-2.07227 10.32422,-3.93555 15.49219,-5.47852 -0.42969,0 -0.85938,-0.008 -1.29297,-0.0234 -0.0156,0 -0.0312,0 -0.0508,0 -0.40234,-0.0117 -0.80859,-0.0273 -1.20703,-0.0508 -0.0703,-0.004 -0.14063,-0.008 -0.21094,-0.0117 -0.34765,-0.0195 -0.6875,-0.043 -1.02344,-0.0742 -0.12109,-0.008 -0.23828,-0.0234 -0.35937,-0.0352 -0.28125,-0.0273 -0.5625,-0.0586 -0.83594,-0.0937 -0.15234,-0.0195 -0.29297,-0.0469 -0.4414,-0.0703 -0.22657,-0.0352 -0.45313,-0.0684 -0.66797,-0.11132 -0.17188,-0.0332 -0.32422,-0.0742 -0.48438,-0.11328 -0.17187,-0.0391 -0.34765,-0.0762 -0.5039,-0.12305 -0.1836,-0.0527 -0.33594,-0.11719 -0.5,-0.17774 -0.11329,-0.041 -0.23829,-0.0781 -0.33985,-0.12304 -0.25,-0.11328 -0.46484,-0.23828 -0.64453,-0.375 v -1.5625 c 0,-6.66406 3.11719,-9.95703 9.01172,-9.95703 5.97656,0 8.14062,3.11719 8.14062,6.15234 0,0.625 -0.0625,1.18555 -0.16797,1.70313 -0.0586,0.29687 -0.16015,0.54687 -0.24609,0.8125 -0.0625,0.18164 -0.10937,0.37695 -0.18359,0.54296 -0.14844,0.33985 -0.33203,0.63282 -0.52735,0.91602 -0.0352,0.0508 -0.0664,0.10547 -0.10156,0.1543 -0.23828,0.31445 -0.5,0.59375 -0.79297,0.84375 2.89453,-0.71485 5.80078,-1.33203 8.72266,-1.83203 0.008,-0.0391 0.008,-0.0801 0.0156,-0.11719 0.0625,-0.39648 0.11719,-0.80078 0.15234,-1.22266 0.0391,-0.47265 0.0625,-0.95507 0.0625,-1.46093 0,-0.39844 -0.0156,-0.80274 -0.0508,-1.20508 -0.008,-0.10743 -0.0273,-0.2168 -0.0391,-0.32618 z"
   id="path47"
   style="fill:#0057ae"
   inkscape:connector-curvature="0" />
	</g>
	<g
   id="_x3C_flying-e_x3E_">
		<linearGradient
   x1="225.74609"
   y1="65.536133"
   x2="364"
   y2="65.536133"
   id="SVGID_5_"
   gradientUnits="userSpaceOnUse">
			<stop
   id="stop51"
   style="stop-color:#0057ae;stop-opacity:1"
   offset="0" />
			<stop
   id="stop53"
   style="stop-color:#80b3ff;stop-opacity:1"
   offset="1" />
		</linearGradient>
		<path
   d="m 292.72656,14.556641 c -3.36328,-0.480469 -6.66015,-0.845703 -9.90625,-1.09961 3.27735,5.246094 6.70703,10.714844 10.28516,16.425781 -20.44141,-1.818359 -39.49219,0.664063 -58.48047,5.525391 -0.33594,4.441406 -2.80078,9.791016 -6.67969,15.646484 16.35156,-5.210937 32.4961,-8.849609 49.09766,-9.8125 2.91797,5.958985 5.95703,12.171875 9.14062,18.65625 -20.42968,1.324219 -40.19531,6.785157 -60.4375,14.515625 0.90625,6.384766 1.84766,13.017578 2.83203,19.933594 30.90625,-13.085938 60.88672,-20.845703 94.46875,-16.808594 7.10547,11.285156 14.75,23.410158 23,36.496098 5.78125,0.82812 11.75782,2.01953 17.95313,3.58007 C 334.30469,74.769531 311.20312,41.365234 292.72656,14.556641 Z"
   id="path55"
   style="fill:url(#SVGID_5_)"
   inkscape:connector-curvature="0" />
		<g
   id="g57"
   style="opacity:0.5">
			
				<linearGradient
   x1="241.60156"
   y1="38.801758"
   x2="256.80859"
   y2="38.801758"
   id="SVGID_6_"
   gradientUnits="userSpaceOnUse">
				<stop
   id="stop60"
   style="stop-color:#00207a;stop-opacity:1"
   offset="0.285714" />
				<stop
   id="stop62"
   style="stop-color:#1e6bbf;stop-opacity:1"
   offset="1" />
			</linearGradient>
			<path
   d="m 244.63281,43.347656 c 0.082,0.941406 0.0273,1.947266 -0.1289,3.003906 4.09765,-1.011718 8.19531,-1.898437 12.30468,-2.644531 -0.70703,-4.279297 -1.39453,-8.433594 -2.0625,-12.455078 -4.40234,0.677734 -8.78125,1.507813 -13.14453,2.482422 1.65625,2.767578 2.70313,5.980469 3.03125,9.613281 z"
   id="path64"
   style="fill:url(#SVGID_6_)"
   inkscape:connector-curvature="0" />
			<linearGradient
   x1="225.97266"
   y1="79.052734"
   x2="263.125"
   y2="79.052734"
   id="SVGID_7_"
   gradientUnits="userSpaceOnUse">
				<stop
   id="stop67"
   style="stop-color:#00207a;stop-opacity:1"
   offset="0.285714" />
				<stop
   id="stop69"
   style="stop-color:#1e6bbf;stop-opacity:1"
   offset="1" />
			</linearGradient>
			<path
   d="m 260.10547,63.757812 c -10.64062,2.404297 -21.23047,5.75 -31.94531,9.75 -0.71485,0.832031 -1.44531,1.666016 -2.1875,2.501953 0.83984,5.896485 1.70312,11.994141 2.60547,18.337891 11.5664,-4.898437 23,-9.046875 34.54687,-12.113281 -1.04297,-6.398438 -2.04688,-12.542969 -3.01953,-18.476563 z"
   id="path71"
   style="fill:url(#SVGID_7_)"
   inkscape:connector-curvature="0" />
		</g>
		
			<linearGradient
   x1="225.74609"
   y1="53.902344"
   x2="365.52246"
   y2="53.902344"
   id="SVGID_8_"
   gradientUnits="userSpaceOnUse">
			<stop
   id="stop74"
   style="stop-color:#001e77;stop-opacity:1"
   offset="0.285714" />
			<stop
   id="stop76"
   style="stop-color:#5c98e7;stop-opacity:1"
   offset="1" />
		</linearGradient>
		<path
   d="m 296.10938,29.882812 c -3.57813,-5.609375 -7.00391,-10.984374 -10.28516,-16.140625 -1.00391,-0.09961 -2.01172,-0.207031 -3.00391,-0.285156 3.23047,5.171875 6.61328,10.566407 10.14063,16.195313 1.04687,0.07227 2.08984,0.136718 3.14844,0.230468 z m -18.94922,11.597657 c 2.88671,5.886719 5.88281,12.021484 9.02343,18.417969 -20.42968,1.324218 -40.19531,6.785156 -60.4375,14.515625 0.90625,6.384765 1.84766,13.017578 2.83203,19.933593 1.16407,-0.49414 2.32813,-0.96289 3.48438,-1.439453 -0.98047,-6.398437 -1.92188,-12.55664 -2.83203,-18.49414 20.16015,-7.730469 39.86719,-13.191407 60.28515,-14.515625 -3.2539,-6.484375 -6.36328,-12.697266 -9.34375,-18.65625 -1.01562,0.05664 -2.00781,0.162109 -3.01171,0.238281 z m -42.625,-5.244141 c 15.28515,-4.126953 30.52734,-6.759765 46.35156,-6.933594 -15.83985,-0.136718 -31.05078,2.220703 -46.26172,6.111328 -0.0234,0.271485 -0.0547,0.546876 -0.0898,0.822266 z"
   id="path78"
   style="opacity:0.25;fill:url(#SVGID_8_)"
   inkscape:connector-curvature="0" />
	</g>
	<g
   id="_x3C_flying-d_x3E_">
		<linearGradient
   x1="130.42188"
   y1="64.029297"
   x2="203.54395"
   y2="64.029297"
   id="SVGID_9_"
   gradientUnits="userSpaceOnUse">
			<stop
   id="stop82"
   style="stop-color:#0057ae;stop-opacity:1"
   offset="0.285714" />
			<stop
   id="stop84"
   style="stop-color:#80b3ff;stop-opacity:1"
   offset="1" />
		</linearGradient>
		<path
   d="m 203.44922,43.748047 c 1.1875,-11.259766 -8.94141,-15.964844 -22.36328,-11.416016 -8.83008,2.964844 -17.85938,5.976563 -27.07813,8.84961 -6.8789,16.666015 -14.6875,35.314453 -23.58593,56.263672 12.83203,-4.591797 25.34179,-9.609375 37.46875,-14.652344 18.52343,-7.757813 34.19531,-26.15625 35.55859,-39.044922 z"
   id="path86"
   style="fill:url(#SVGID_9_)"
   inkscape:connector-curvature="0" />
		
			<linearGradient
   x1="159.19336"
   y1="58.573242"
   x2="254.04688"
   y2="58.573242"
   id="SVGID_10_"
   gradientUnits="userSpaceOnUse">
			<stop
   id="stop89"
   style="stop-color:#0057ae;stop-opacity:1"
   offset="0.285714" />
			<stop
   id="stop91"
   style="stop-color:#80b3ff;stop-opacity:1"
   offset="1" />
		</linearGradient>
		<path
   d="m 185.48828,15.117188 c 26.48438,-8.3417974 47.41797,-0.669922 49.12891,18.216796 1.98828,22.375 -67.30664,79.195316 -75.42383,83.203126 3.62695,3.62695 65.06445,-28.050782 94.85351,-38.56836 C 249.03906,47.164062 244.83984,21.742187 241.25,0.4023438 240.9375,-0.9882812 180.35742,15.992188 185.48828,15.117188 Z"
   id="path93"
   style="fill:url(#SVGID_10_)"
   inkscape:connector-curvature="0" />
		<g
   id="g95"
   style="opacity:0.25">
			
				<linearGradient
   x1="185.17969"
   y1="7.7353516"
   x2="241.27734"
   y2="7.7353516"
   id="SVGID_11_"
   gradientUnits="userSpaceOnUse">
				<stop
   id="stop98"
   style="stop-color:#001e77;stop-opacity:1"
   offset="0.285714" />
				<stop
   id="stop100"
   style="stop-color:#5c98e7;stop-opacity:1"
   offset="1" />
			</linearGradient>
			<path
   d="m 195.44531,12.648438 c 13.26172,-3.851563 38.50781,-10.7617192 45.83203,-12.0976568 -0.008,-0.0488281 -0.0195,-0.0996094 -0.0273,-0.1484375 -0.3125,-1.390625 -60.89258,15.5898443 -55.76172,14.7148433 3.46289,-1.089843 6.78516,-1.904296 9.95703,-2.468749 z"
   id="path102"
   style="fill:url(#SVGID_11_)"
   inkscape:connector-curvature="0" />
			
				<linearGradient
   x1="159.19336"
   y1="64.25293"
   x2="237.10156"
   y2="64.25293"
   id="SVGID_12_"
   gradientUnits="userSpaceOnUse">
				<stop
   id="stop105"
   style="stop-color:#001e77;stop-opacity:1"
   offset="0.285714" />
				<stop
   id="stop107"
   style="stop-color:#5c98e7;stop-opacity:1"
   offset="1" />
			</linearGradient>
			<path
   d="m 162.34766,116.53711 c 8.08203,-4.00781 76.88671,-60.828126 74.70312,-83.203126 -1.41406,-14.255859 -13.52344,-22.011718 -30.0664,-21.642578 15.35156,0.335938 26.40234,8.007812 27.63281,21.642578 1.98828,22.375 -67.30664,79.195316 -75.42383,83.203126 0.60743,0.56445 2.29883,0.1582 3.1543,0 z"
   id="path109"
   style="fill:url(#SVGID_12_)"
   inkscape:connector-curvature="0" />
		</g>
		
			<linearGradient
   x1="144.3335"
   y1="50.856934"
   x2="171.27467"
   y2="77.798119"
   id="SVGID_13_"
   gradientUnits="userSpaceOnUse">
			<stop
   id="stop112"
   style="stop-color:#00207a;stop-opacity:1"
   offset="0.285714" />
			<stop
   id="stop114"
   style="stop-color:#1e6bbf;stop-opacity:1"
   offset="1" />
		</linearGradient>
		<path
   d="m 185.19141,31.214844 c -1.32422,0.279297 -2.6875,0.632812 -4.10547,1.117187 -8.83008,2.964844 -17.85938,5.976563 -27.07813,8.84961 -6.8789,16.666015 -14.6875,35.314453 -23.58594,56.263672 11.86719,-4.248047 23.46485,-8.869141 34.73438,-13.529297 7.57031,-19.648438 14.20313,-37.09961 20.03516,-52.701172 z"
   id="path116"
   style="opacity:0.5;fill:url(#SVGID_13_)"
   inkscape:connector-curvature="0" />
		
			<linearGradient
   x1="130.42188"
   y1="64.017578"
   x2="192.27734"
   y2="64.017578"
   id="SVGID_14_"
   gradientUnits="userSpaceOnUse">
			<stop
   id="stop119"
   style="stop-color:#001e77;stop-opacity:1"
   offset="0.285714" />
			<stop
   id="stop121"
   style="stop-color:#5c98e7;stop-opacity:1"
   offset="1" />
		</linearGradient>
		<path
   d="m 157.13477,41.181641 c 9.18945,-2.873047 18.18359,-5.884766 26.98242,-8.84961 2.92773,-1 5.66016,-1.527344 8.16016,-1.679688 -3.23438,-0.253906 -7.02735,0.265626 -11.19141,1.679688 -8.83008,2.964844 -17.85938,5.976563 -27.07813,8.84961 -6.8789,16.666015 -14.6875,35.314453 -23.58594,56.263671 1.46875,-0.52539 2.93555,-1.080078 4.39454,-1.617187 8.39648,-20.292969 15.79101,-38.404297 22.31836,-54.646484 z"
   id="path123"
   style="opacity:0.25;fill:url(#SVGID_14_)"
   inkscape:connector-curvature="0" />
	</g>
	<g
   id="_x3C_flying-k_x3E_">
		<linearGradient
   x1="0"
   y1="81.222168"
   x2="71.277344"
   y2="81.222168"
   id="SVGID_15_"
   gradientUnits="userSpaceOnUse">
			<stop
   id="stop127"
   style="stop-color:#0057ae;stop-opacity:1"
   offset="0" />
			<stop
   id="stop129"
   style="stop-color:#2b76c9;stop-opacity:1"
   offset="0.224044" />
			<stop
   id="stop131"
   style="stop-color:#5090e1;stop-opacity:1"
   offset="0.45131299" />
			<stop
   id="stop133"
   style="stop-color:#6aa3f1;stop-opacity:1"
   offset="0.66361868" />
			<stop
   id="stop135"
   style="stop-color:#7aaffb;stop-opacity:1"
   offset="0.85286587" />
			<stop
   id="stop137"
   style="stop-color:#80b3ff;stop-opacity:1"
   offset="1" />
		</linearGradient>
		<path
   d="M 71.277344,103.125 C 63.773438,87.78125 57.435547,72.625 52.304688,57.480469 35.824219,70.744141 18.302734,83.935547 0,96.539062 20.546875,105.43164 45.148438,106.6582 71.277344,103.125 Z"
   id="path139"
   style="fill:url(#SVGID_15_)"
   inkscape:connector-curvature="0" />
		
			<linearGradient
   x1="100.93359"
   y1="43.404297"
   x2="188.34961"
   y2="43.404297"
   id="SVGID_16_"
   gradientUnits="userSpaceOnUse">
			<stop
   id="stop142"
   style="stop-color:#0057ae;stop-opacity:1"
   offset="0" />
			<stop
   id="stop144"
   style="stop-color:#2b76c9;stop-opacity:1"
   offset="0.224044" />
			<stop
   id="stop146"
   style="stop-color:#5090e1;stop-opacity:1"
   offset="0.45131299" />
			<stop
   id="stop148"
   style="stop-color:#6aa3f1;stop-opacity:1"
   offset="0.66361868" />
			<stop
   id="stop150"
   style="stop-color:#7aaffb;stop-opacity:1"
   offset="0.85286587" />
			<stop
   id="stop152"
   style="stop-color:#80b3ff;stop-opacity:1"
   offset="1" />
		</linearGradient>
		<path
   d="M 177.75391,2.8457031 C 155.20703,18.011719 129.43359,34.927734 100.93359,49.634766 c 10.42383,12.568359 22.1836,24.791015 35.20313,37.173828 6.36328,-2.181641 12.65625,-4.458985 18.85937,-6.78125 C 168.56641,48.246094 179.46875,21.917969 188.34961,0 c -3.50195,0.9375 -7.0332,1.890625 -10.5957,2.8457031 z"
   id="path154"
   style="fill:url(#SVGID_16_)"
   inkscape:connector-curvature="0" />
		
			<linearGradient
   x1="66.535156"
   y1="28.770508"
   x2="141.97266"
   y2="28.770508"
   id="SVGID_17_"
   gradientUnits="userSpaceOnUse">
			<stop
   id="stop157"
   style="stop-color:#0057ae;stop-opacity:1"
   offset="0" />
			<stop
   id="stop159"
   style="stop-color:#2b76c9;stop-opacity:1"
   offset="0.224044" />
			<stop
   id="stop161"
   style="stop-color:#5090e1;stop-opacity:1"
   offset="0.45131299" />
			<stop
   id="stop163"
   style="stop-color:#6aa3f1;stop-opacity:1"
   offset="0.66361868" />
			<stop
   id="stop165"
   style="stop-color:#7aaffb;stop-opacity:1"
   offset="0.85286587" />
			<stop
   id="stop167"
   style="stop-color:#80b3ff;stop-opacity:1"
   offset="1" />
		</linearGradient>
		<path
   d="m 98.222656,18.142578 c -9.935547,9.041016 -20.507812,18.306641 -31.6875,27.660156 26.363281,-8.328125 52.005864,-20.917969 75.437504,-34.064453 -14.52344,3.148438 -29.23047,5.570313 -43.750004,6.404297 z"
   id="path169"
   style="fill:url(#SVGID_17_)"
   inkscape:connector-curvature="0" />
		<linearGradient
   x1="0"
   y1="81.186523"
   x2="53.037109"
   y2="81.186523"
   id="SVGID_18_"
   gradientUnits="userSpaceOnUse">
			<stop
   id="stop172"
   style="stop-color:#001e77;stop-opacity:1"
   offset="0.285714" />
			<stop
   id="stop174"
   style="stop-color:#5c98e7;stop-opacity:1"
   offset="1" />
		</linearGradient>
		<path
   d="M 3.7265625,96.539062 C 20.935547,84.601562 37.455078,72.087891 53.037109,59.53125 52.796875,58.835938 52.539062,58.179688 52.304688,57.480469 35.824219,70.744141 18.302734,83.935547 0,96.539062 13.591797,102.42578 29.138672,104.9082 45.818359,104.89258 30.560547,104.53711 16.324219,101.9668 3.7265625,96.539062 Z"
   id="path176"
   style="opacity:0.25;fill:url(#SVGID_18_)"
   inkscape:connector-curvature="0" />
		
			<linearGradient
   x1="100.93359"
   y1="43.404297"
   x2="188.34961"
   y2="43.404297"
   id="SVGID_19_"
   gradientUnits="userSpaceOnUse">
			<stop
   id="stop179"
   style="stop-color:#001e77;stop-opacity:1"
   offset="0.285714" />
			<stop
   id="stop181"
   style="stop-color:#5c98e7;stop-opacity:1"
   offset="1" />
		</linearGradient>
		<path
   d="M 104.15234,49.634766 C 132.49219,34.927734 158.08203,18.011719 180.46484,2.8457031 183,2.1640625 185.51367,1.484375 188.01562,0.8125 188.12695,0.5410156 188.24219,0.2714844 188.34961,0 c -3.50195,0.9375 -7.0332,1.890625 -10.5957,2.8457031 -22.54688,15.1660159 -48.32032,32.0820309 -76.82032,46.7890629 10.42383,12.568359 22.1836,24.791015 35.20313,37.173828 0.8789,-0.300782 1.75976,-0.644532 2.63672,-0.949219 -12.75977,-12.060547 -24.32813,-23.974609 -34.6211,-36.224609 z"
   id="path183"
   style="opacity:0.25;fill:url(#SVGID_19_)"
   inkscape:connector-curvature="0" />
		
			<linearGradient
   x1="66.535156"
   y1="28.770508"
   x2="141.97266"
   y2="28.770508"
   id="SVGID_20_"
   gradientUnits="userSpaceOnUse">
			<stop
   id="stop186"
   style="stop-color:#001e77;stop-opacity:1"
   offset="0.285714" />
			<stop
   id="stop188"
   style="stop-color:#5c98e7;stop-opacity:1"
   offset="1" />
		</linearGradient>
		<path
   d="m 101.09961,18.142578 c 12.98633,-0.746094 26.12305,-2.771484 39.14258,-5.449219 0.57812,-0.322265 1.15429,-0.632812 1.73047,-0.955078 -14.52344,3.148438 -29.23047,5.570313 -43.750004,6.404297 -9.935547,9.041016 -20.507812,18.306641 -31.6875,27.660156 1.744141,-0.550781 3.507813,-1.18164 5.251953,-1.771484 10.314453,-8.757812 20.089844,-17.416016 29.312501,-25.888672 z"
   id="path190"
   style="opacity:0.25;fill:url(#SVGID_20_)"
   inkscape:connector-curvature="0" />
	</g>
</g>
<defs
   id="defs192"><filter
     height="50"
     width="228.27344"
     y="180"
     x="67.863281"
     filterUnits="userSpaceOnUse"
     id="Adobe_OpacityMaskFilter">
		<feColorMatrix
   id="feColorMatrix195"
   values="1 0 0 0 0  0 1 0 0 0  0 0 1 0 0  0 0 0 1 0"
   type="matrix" />
	</filter><linearGradient
     x1="182.00049"
     y1="230"
     x2="182.00049"
     y2="180"
     id="linearGradient2561"
     gradientUnits="userSpaceOnUse">
			<stop
   id="stop2563"
   style="stop-color:#000000;stop-opacity:1;fill-opacity:1.0;fill:url(#linearGradient3366)"
   offset="0" />
			<stop
   id="stop2565"
   style="stop-color:#ffffff;stop-opacity:1;fill-opacity:1.0;fill:url(#linearGradient3366)"
   offset="1" />
		</linearGradient><linearGradient
     inkscape:collect="always"
     xlink:href="#linearGradient2561"
     id="linearGradient3380"
     x1="249.21222"
     y1="199.90794"
     x2="249.21222"
     y2="250"
     gradientUnits="userSpaceOnUse"
     gradientTransform="translate(-4.8843125e-4,-430)" /><linearGradient
     inkscape:collect="always"
     xlink:href="#linearGradient2561"
     id="linearGradient3407"
     gradientUnits="userSpaceOnUse"
     gradientTransform="translate(-4.8843125e-4,-430)"
     x1="249.21222"
     y1="199.90794"
     x2="249.21222"
     y2="250" /><mask
     maskUnits="userSpaceOnUse"
     id="mask3403"><rect
       width="228.27295"
       height="50"
       x="67.863281"
       y="-230"
       id="rect3405"
       style="opacity:1;fill:url(#linearGradient3407);fill-opacity:1"
       transform="scale(1,-1)" /></mask></defs>
<mask
   id="SVGID_21_">
	<g
   id="g198"
   style="filter:url(#Adobe_OpacityMaskFilter)">
		<linearGradient
   x1="182.00049"
   y1="230"
   x2="182.00049"
   y2="180"
   id="SVGID_22_"
   gradientUnits="userSpaceOnUse">
			<stop
   id="stop201"
   style="stop-color:#000000;stop-opacity:1"
   offset="0" />
			<stop
   id="stop203"
   style="stop-color:#ffffff;stop-opacity:1"
   offset="1" />
		</linearGradient>
		<rect
   width="228.27295"
   height="50"
   x="67.86377"
   y="180"
   id="rect205"
   style="fill:url(#SVGID_22_)" />
	</g>
</mask>

	

</svg>